{
    "blueGoal" : 
    {
        "points" : [
            [-1.3, -2.0],
            [-2.0, -1.3]
        ]
    },
    "redGoal" : 
    {
        "points" : [
            [1.3, 2.0],
            [2.0, 1.3]
        ]
    }
}